robot_trace.vcd
$date
     Oct 30, 2021       22:17:51
$end

$version
 SystemC 2.3.3-Accellera --- Aug 24 2021 23:20:20
$end

$timescale
     1 ps
$end

$scope module SystemC $end
$var wire   32  aaaaa  robot_1_speed [31:0]  $end
$var wire   32  aaaab  robot_2_speed [31:0]  $end
$var wire   32  aaaac  robot_3_speed [31:0]  $end
$var wire   32  aaaad  robot_4_speed [31:0]  $end
$var wire   32  aaaae  robot_1_current_grid [31:0]  $end
$var wire   32  aaaaf  robot_2_current_grid [31:0]  $end
$var wire   32  aaaag  robot_3_current_grid [31:0]  $end
$var wire   32  aaaah  robot_4_current_grid [31:0]  $end
$upscope $end
$enddefinitions  $end

$comment
All initial values are dumped below at time 0 sec = 0 timescale units.
$end

$dumpvars
b0 aaaaa
b0 aaaab
b0 aaaac
b0 aaaad
b11111111111111111111111111111111 aaaae
b11111111111111111111111111111111 aaaaf
b11111111111111111111111111111111 aaaag
b11111111111111111111111111111111 aaaah
$end

#1010000000000
b1 aaaae

#1100000000000
b1100100 aaaaa

#1200000000000
b11001000 aaaaa

#1300000000000
b100101100 aaaaa

#1400000000000
b110010000 aaaaa

#1500000000000
b111110100 aaaaa

#1600000000000
b1001011000 aaaaa

#1700000000000
b1010111100 aaaaa

#1800000000000
b1100100000 aaaaa

#1900000000000
b1110000100 aaaaa

#2000000000000
b1111101000 aaaaa

#2010000000000
b111100 aaaah

#2100000000000
b10001001100 aaaaa

#2200000000000
b10010110000 aaaaa

#2240000000000
b0 aaaaa

#2800000000000
b1100100 aaaad

#2900000000000
b11001000 aaaad

#3000000000000
b100101100 aaaad

#3100000000000
b110010000 aaaad

#3200000000000
b111110100 aaaad

#3300000000000
b1100100 aaaaa
b1001011000 aaaad

#3400000000000
b11001000 aaaaa
b1010111100 aaaad

#3500000000000
b100101100 aaaaa
b1100100000 aaaad

#3600000000000
b110010000 aaaaa
b1110000100 aaaad

#3700000000000
b111110100 aaaaa
b1111101000 aaaad

#3800000000000
b1001011000 aaaaa

#3900000000000
b1010111100 aaaaa

#4000000000000
b1100100000 aaaaa

#4010000000000
b1011 aaaae

#4100000000000
b1110000100 aaaaa

#4200000000000
b1111101000 aaaaa

#4250000000000
b110010 aaaah

#4300000000000
b10001001100 aaaaa

#4400000000000
b10010110000 aaaaa

#4500000000000
b10100010100 aaaaa

#4600000000000
b10101111000 aaaaa

#4700000000000
b10111011100 aaaaa

#4800000000000
b11001000000 aaaaa

#4900000000000
b11010100100 aaaaa

#5010000000000
b1010 aaaaf

#5100000000000
b11001110010 aaaaa
b1100100 aaaab

#5160000000000
b1101 aaaae

#5200000000000
b11001000000 aaaaa
b11001000 aaaab

#5300000000000
b11000001110 aaaaa
b100101100 aaaab

#5400000000000
b10111011100 aaaaa
b110010000 aaaab

#5500000000000
b10110101010 aaaaa
b111110100 aaaab

#5600000000000
b10101111000 aaaaa
b1001011000 aaaab

#5700000000000
b10101000110 aaaaa
b1010111100 aaaab

#5760000000000
b110000 aaaah

#5800000000000
b10100010100 aaaaa
b1100100000 aaaab

#5900000000000
b10011100010 aaaaa
b1110000100 aaaab

#6000000000000
b10010110000 aaaaa
b1111101000 aaaab

#6100000000000
b10001111110 aaaaa
b10001001100 aaaab

#6200000000000
b10001001100 aaaaa
b10010110000 aaaab

#6300000000000
b10000011010 aaaaa
b10100010100 aaaab

#6400000000000
b1111101000 aaaaa
b10101111000 aaaab

#6460000000000
b1100 aaaaf

#6500000000000
b1110110110 aaaaa
b10111011100 aaaab
b1110 aaaae

#6600000000000
b1110000100 aaaaa
b11001000000 aaaab

#6700000000000
b11010100100 aaaab

#6800000000000
b11100001000 aaaab

#6900000000000
b11101101100 aaaab

#7000000000000
b11111010000 aaaab

#7010000000000
b110011 aaaag

#7260000000000
b101111 aaaah

#7460000000000
b10110 aaaaf

#7470000000000
b0 aaaab

#7500000000000
b1111101000 aaaaa

#7600000000000
b10001001100 aaaaa

#7700000000000
b10010110000 aaaaa

#7740000000000
b0 aaaad

#7800000000000
b10100010100 aaaaa
b1100100 aaaac

#7900000000000
b10101111000 aaaaa
b11001000 aaaac

#7970000000000
b1111 aaaae

#7980000000000
b0 aaaaa

#8000000000000
b100101100 aaaac

#8100000000000
b110010000 aaaac

#8200000000000
b111110100 aaaac

#8300000000000
b1100100 aaaab
b1001011000 aaaac

#8400000000000
b11001000 aaaab
b1010111100 aaaac

#8500000000000
b100101100 aaaab
b1100100000 aaaac

#8600000000000
b110010000 aaaab
b1110000100 aaaac

#8700000000000
b111110100 aaaab
b1111101000 aaaac

#8800000000000
b1100100 aaaaa
b1001011000 aaaab
b1100100 aaaad

#8900000000000
b11001000 aaaaa
b1010111100 aaaab
b11001000 aaaad

#9000000000000
b100101100 aaaaa
b1100100000 aaaab
b100101100 aaaad

#9100000000000
b110010000 aaaaa
b1110000100 aaaab
b110010000 aaaad

#9200000000000
b111110100 aaaaa
b1111101000 aaaab
b111110100 aaaad

#9250000000000
b110001 aaaag

#9300000000000
b1001011000 aaaaa
b10001001100 aaaab
b1001011000 aaaad

#9400000000000
b10010110000 aaaab
b1010111100 aaaad

#9500000000000
b10100010100 aaaab
b1100100000 aaaad

#9600000000000
b10101111000 aaaab
b1110000100 aaaad

#9700000000000
b10111011100 aaaab
b1111101000 aaaad

#9750000000000
b10101 aaaaf

#9800000000000
b11001000000 aaaab
b10001001100 aaaad

#9900000000000
b10010110000 aaaad

#10000000000000
b10100010100 aaaad

#10170000000000
b101110 aaaah

#10740000000000
b0 aaaad

#10760000000000
b100111 aaaag

#10870000000000
b10100 aaaaf

#10940000000000
b10000 aaaae

#11240000000000
b0 aaaac

#11800000000000
b1100100 aaaad

#11900000000000
b11001000 aaaad

#12000000000000
b100101100 aaaad
b10011 aaaaf

#12100000000000
b110010000 aaaad

#12200000000000
b111110100 aaaad

#12240000000000
b0 aaaad

#12300000000000
b1100100 aaaac

#12400000000000
b11001000 aaaac

#12500000000000
b100101100 aaaac

#12600000000000
b110010000 aaaac

#12700000000000
b111110100 aaaac

#12800000000000
b1001011000 aaaac

#12900000000000
b1010111100 aaaac

#13000000000000
b1100100000 aaaac

#13100000000000
b1110000100 aaaac

#13130000000000
b10001 aaaae
b10010 aaaaf

#13160000000000
b0 aaaaa

#13200000000000
b1111101000 aaaac

#13240000000000
b0 aaaab

#13300000000000
b10001001100 aaaac
b1100100 aaaad

#13400000000000
b10010110000 aaaac
b11001000 aaaad

#13500000000000
b10100010100 aaaac
b100101100 aaaad

#13600000000000
b110010000 aaaad

#13670000000000
b100100 aaaag

#13700000000000
b111110100 aaaad

#14740000000000
b0 aaaad

#14800000000000
b1100100 aaaab

#14900000000000
b11001000 aaaab

#14950000000000
b11010 aaaag

#15000000000000
b100101100 aaaab

#15100000000000
b110010000 aaaab

#15200000000000
b111110100 aaaab

#15300000000000
b1001011000 aaaab
b1100100 aaaad

#15400000000000
b1010111100 aaaab
b11001000 aaaad

#15500000000000
b1100100000 aaaab
b100101100 aaaad

#15600000000000
b1110000100 aaaab
b110010000 aaaad

#15700000000000
b1111101000 aaaab

#15800000000000
b10001001100 aaaab

#15900000000000
b10010110000 aaaab

#15910000000000
b101101 aaaah

#16000000000000
b10100010100 aaaab

#16210000000000
b11011 aaaag

#16240000000000
b11000 aaaaf

#16250000000000
b0 aaaab

#16300000000000
b10101111000 aaaac

#16400000000000
b10111011100 aaaac

#16500000000000
b11001000000 aaaac

#16600000000000
b11010100100 aaaac

#16700000000000
b11100001000 aaaac

#16800000000000
b1100100 aaaab
b11101101100 aaaac

#16900000000000
b11001000 aaaab
b11111010000 aaaac

#17000000000000
b100101100 aaaab
b11110011110 aaaac

#17100000000000
b110010000 aaaab
b11101101100 aaaac

#17200000000000
b111110100 aaaab
b11100111010 aaaac

#17240000000000
b0 aaaad
b11100 aaaag

#17250000000000
b0 aaaac

#17300000000000
b1100100 aaaaa
b1001011000 aaaab

#17400000000000
b11001000 aaaaa

#17500000000000
b100101100 aaaaa

#17600000000000
b110010000 aaaaa

#17700000000000
b111110100 aaaaa

#17800000000000
b1001011000 aaaaa
b1100100 aaaad

#17900000000000
b11001000 aaaad

#18000000000000
b100101100 aaaad

#18100000000000
b110010000 aaaad

#18200000000000
b111110100 aaaad

#18300000000000
b1001011000 aaaad

#18400000000000
b1010111100 aaaad

#18500000000000
b1100100000 aaaad

#18600000000000
b1110000100 aaaad

#18700000000000
b1111101000 aaaad

#18800000000000
b10001001100 aaaad

#18900000000000
b10010110000 aaaad

#18920000000000
b101100 aaaah

#18940000000000
b11111 aaaaf

#19000000000000
b10100010100 aaaad

#19100000000000
b10101111000 aaaad

#19200000000000
b10111011100 aaaad

#19300000000000
b1100100 aaaac
b11001000000 aaaad

#19400000000000
b11001000 aaaac
b11010100100 aaaad

#19430000000000
b10010 aaaae

#19500000000000
b100101100 aaaac

#19600000000000
b110010000 aaaac

#19700000000000
b111110100 aaaac

#19740000000000
b0 aaaaa
b0 aaaab

#19800000000000
b1001011000 aaaac

#19900000000000
b1010111100 aaaac

#20000000000000
b1100100000 aaaac

#20010000000000
b101011 aaaah

#20100000000000
b1110000100 aaaac

#20200000000000
b1111101000 aaaac

#20240000000000
b0 aaaad

#20300000000000
b1100100 aaaab
b10001001100 aaaac

#20400000000000
b11001000 aaaab
b10010110000 aaaac

#20500000000000
b100101100 aaaab
b10100010100 aaaac

#20600000000000
b110010000 aaaab
b10101111000 aaaac

#20700000000000
b111110100 aaaab
b10111011100 aaaac

#20740000000000
b0 aaaab

#20750000000000
b11101 aaaag

#21300000000000
b1100100 aaaaa
b10110101010 aaaac

#21400000000000
b11001000 aaaaa
b10101111000 aaaac

#21500000000000
b100101100 aaaaa
b10101000110 aaaac

#21600000000000
b110010000 aaaaa

#21700000000000
b111110100 aaaaa

#21800000000000
b1001011000 aaaaa
b1100100 aaaab

#21900000000000
b11001000 aaaab

#21980000000000
b11110 aaaag

#22000000000000
b100101100 aaaab
b0 aaaac

#22100000000000
b110010000 aaaab

#22200000000000
b111110100 aaaab

#22300000000000
b1001011000 aaaab
b1100100 aaaad

#22400000000000
b1010111100 aaaab
b11001000 aaaad

#22500000000000
b1100100000 aaaab
b100101100 aaaad

#22600000000000
b1110000100 aaaab
b110010000 aaaad

#22700000000000
b1111101000 aaaab
b111110100 aaaad

#22800000000000
b10001001100 aaaab
b1001011000 aaaad

#22900000000000
b10010110000 aaaab
b1010111100 aaaad

#22920000000000
b100000 aaaaf

#23000000000000
b10100010100 aaaab
b1100100 aaaac
b1100100000 aaaad

#23100000000000
b10101111000 aaaab
b11001000 aaaac
b1110000100 aaaad

#23200000000000
b10111011100 aaaab
b100101100 aaaac
b1111101000 aaaad

#23270000000000
b11000 aaaae

#23290000000000
b0 aaaaa

#23300000000000
b11001000000 aaaab
b110010000 aaaac
b10001001100 aaaad

#23400000000000
b11010100100 aaaab
b111110100 aaaac
b10010110000 aaaad

#23500000000000
b11100001000 aaaab
b1001011000 aaaac
b10100010100 aaaad

#23600000000000
b11101101100 aaaab
b1010111100 aaaac

#23700000000000
b11111010000 aaaab
b1100100000 aaaac
b101010 aaaah

#23740000000000
b0 aaaab

#23800000000000
b1110000100 aaaac

#23900000000000
b1111101000 aaaac

#24240000000000
b0 aaaac

#24300000000000
b1100100 aaaab

#24400000000000
b11001000 aaaab

#24500000000000
b100101100 aaaab

#24600000000000
b110010000 aaaab

#24700000000000
b111110100 aaaab

#24800000000000
b1001011000 aaaab

#24900000000000
b1010111100 aaaab

#24980000000000
b101001 aaaah

#25000000000000
b1100100000 aaaab

#25100000000000
b1110000100 aaaab

#25170000000000
b100001 aaaaf

#25200000000000
b1111101000 aaaab

#25240000000000
b0 aaaab

#25300000000000
b1100100 aaaac

#25400000000000
b11001000 aaaac

#25500000000000
b100101100 aaaac

#25600000000000
b110010000 aaaac

#25700000000000
b111110100 aaaac

#25800000000000
b1001011000 aaaac

#26100000000000
b11111 aaaag

#26240000000000
b0 aaaac

#26250000000000
b101000 aaaah

#26300000000000
b1100100 aaaab

#26400000000000
b11001000 aaaab

#26500000000000
b100101100 aaaab

#26600000000000
b110010000 aaaab

#26700000000000
b111110100 aaaab

#26800000000000
b1001011000 aaaab

#26900000000000
b1010111100 aaaab

#27000000000000
b1100100000 aaaab

#27100000000000
b1110000100 aaaab

#27200000000000
b1111101000 aaaab

#27300000000000
b10001001100 aaaab

#27400000000000
b10010110000 aaaab

#27500000000000
b10100010100 aaaab

#27530000000000
b100111 aaaah

#27540000000000
b0 aaaad

#27600000000000
b10101111000 aaaab

#27700000000000
b10111011100 aaaab

#27740000000000
b0 aaaab

#27800000000000
b1100100 aaaac

#27900000000000
b11001000 aaaac

#28000000000000
b100101100 aaaac

#28100000000000
b110010000 aaaac

#28200000000000
b111110100 aaaac

#28300000000000
b1001011000 aaaac
b1100100 aaaad

#28400000000000
b1010111100 aaaac
b11001000 aaaad

#28500000000000
b1100100000 aaaac
b100101100 aaaad

#28600000000000
b1110000100 aaaac
b110010000 aaaad

#28700000000000
b1111101000 aaaac
b111110100 aaaad

#28800000000000
b1100100 aaaab
b10001001100 aaaac
b1001011000 aaaad

#28830000000000
b100010 aaaaf

#28840000000000
b0 aaaab

#28900000000000
b10010110000 aaaac
b1010111100 aaaad

#29000000000000
b10100010100 aaaac
b1100100000 aaaad

#29100000000000
b10101111000 aaaac
b1110000100 aaaad

#29200000000000
b10111011100 aaaac
b1111101000 aaaad

#29220000000000
b100000 aaaag

#29300000000000
b1100100 aaaaa
b1100100 aaaab
b10001001100 aaaad

#29400000000000
b11001000 aaaaa
b11001000 aaaab
b10010110000 aaaad

#29500000000000
b100101100 aaaaa
b100101100 aaaab
b10100010100 aaaad

#29600000000000
b110010000 aaaaa
b110010000 aaaab

#29700000000000
b111110100 aaaaa
b111110100 aaaab

#29740000000000
b0 aaaab
b0 aaaad

#29800000000000
b1001011000 aaaaa

#29900000000000
b1010111100 aaaaa

#30000000000000
b1100100000 aaaaa

#30100000000000
b1110000100 aaaaa

#30200000000000
b1111101000 aaaaa

#30300000000000
b1100100 aaaad

#30380000000000
b100101 aaaag

#30400000000000
b11001000 aaaad

#30500000000000
b100101100 aaaad

#30540000000000
b100100 aaaah

#30600000000000
b110010000 aaaad

#30700000000000
b111110100 aaaad

#30740000000000
b0 aaaac

#30800000000000
b1100100 aaaab
b1001011000 aaaad

#30880000000000
b11111 aaaae

#30900000000000
b11001000 aaaab
b1010111100 aaaad

#31000000000000
b100101100 aaaab
b1100100000 aaaad

#31100000000000
b110010000 aaaab
b1110000100 aaaad

#31200000000000
b111110100 aaaab
b1111101000 aaaad

#31240000000000
b0 aaaad

#31300000000000
b10001001100 aaaaa
b1001011000 aaaab

#31400000000000
b10010110000 aaaaa
b1010111100 aaaab

#31500000000000
b10100010100 aaaaa
b1100100000 aaaab

#31600000000000
b10101111000 aaaaa
b1110000100 aaaab

#31700000000000
b10111011100 aaaaa
b1111101000 aaaab

#31800000000000
b11001000000 aaaaa
b10001001100 aaaab
b1100100 aaaad

#31900000000000
b11010100100 aaaaa
b10010110000 aaaab
b11001000 aaaad

#32000000000000
b11100001000 aaaaa
b10100010100 aaaab
b100101100 aaaad

#32040000000000
b11110 aaaae

#32100000000000
b11101101100 aaaaa
b10101111000 aaaab
b110010000 aaaad

#32170000000000
b100011 aaaaf

#32200000000000
b11111010000 aaaaa
b10111011100 aaaab
b111110100 aaaad

#32300000000000
b11110011110 aaaaa
b11001000000 aaaab

#32400000000000
b11101101100 aaaaa
b11010100100 aaaab

#32500000000000
b11100111010 aaaaa
b11100001000 aaaab

#32600000000000
b11100001000 aaaaa
b11101101100 aaaab

#32700000000000
b11011010110 aaaaa
b11111010000 aaaab

#32740000000000
b0 aaaaa

#33160000000000
b11001 aaaaf

#33180000000000
b0 aaaab

#33300000000000
b1100100 aaaac

#33400000000000
b11001000 aaaac

#33500000000000
b100101100 aaaac

#33600000000000
b110010000 aaaac

#33680000000000
b11010 aaaah

#33700000000000
b111110100 aaaac

#33800000000000
b1100100 aaaaa
b1001011000 aaaac

#33900000000000
b11001000 aaaaa

#34000000000000
b100101100 aaaaa

#34100000000000
b110010000 aaaaa

#34200000000000
b111110100 aaaaa

#34300000000000
b1001011000 aaaaa

#34400000000000
b1010111100 aaaaa

#34500000000000
b1100100000 aaaaa

#34600000000000
b1110000100 aaaaa

#34700000000000
b1111101000 aaaaa

#34740000000000
b0 aaaad

#34800000000000
b10001001100 aaaaa

#34890000000000
b11101 aaaae

#34900000000000
b10010110000 aaaaa

#35000000000000
b10100010100 aaaaa

#35100000000000
b10101111000 aaaaa

#35200000000000
b10111011100 aaaaa

#35240000000000
b101101 aaaag

#35300000000000
b11001000000 aaaaa
b1100100 aaaad

#35400000000000
b11001000 aaaad

#35500000000000
b100101100 aaaad

#35600000000000
b110010000 aaaad

#35700000000000
b111110100 aaaad

#35800000000000
b1001011000 aaaad

#35900000000000
b1010111100 aaaad

#36000000000000
b1100100000 aaaad

#36020000000000
b11100 aaaae

#36100000000000
b1110000100 aaaad

#36200000000000
b1111101000 aaaad

#36300000000000
b10001001100 aaaad

#36400000000000
b10010110000 aaaad

#36460000000000
b10111 aaaah

#36480000000000
b0 aaaad

#37150000000000
b11011 aaaae

#37240000000000
b0 aaaac

#38240000000000
b0 aaaaa

#38300000000000
b1100100 aaaac

#38400000000000
b11001000 aaaac

#38500000000000
b100101100 aaaac

#38600000000000
b110010000 aaaac

#38700000000000
b111110100 aaaac

#38720000000000
b101110 aaaag

#38730000000000
b0 aaaac

#38800000000000
b1100100 aaaac

#38900000000000
b11001000 aaaac

#39000000000000
b100101100 aaaac

#39100000000000
b110010000 aaaac

#39200000000000
b111110100 aaaac

#39300000000000
b1100100 aaaaa
b1001011000 aaaac

#39400000000000
b11001000 aaaaa
b1010111100 aaaac

#39500000000000
b100101100 aaaaa
b1100100000 aaaac

#39600000000000
b110010000 aaaaa
b1110000100 aaaac

#39610000000000
b11010 aaaae

#39700000000000
b111110100 aaaaa
b1111101000 aaaac

#39800000000000
b1001011000 aaaaa

#40390000000000
b101111 aaaag

#41790000000000
b100100 aaaae

#41900000000000
b110000 aaaag

#43240000000000
b0 aaaaa

#43380000000000
b100110 aaaag

#43400000000000
b0 aaaac

#44300000000000
b1100100 aaaaa

#44400000000000
b11001000 aaaaa

#44500000000000
b100101100 aaaaa

#44600000000000
b110010000 aaaaa

#44700000000000
b111110100 aaaaa

#44800000000000
b1001011000 aaaaa

#44900000000000
b1010111100 aaaaa

#45000000000000
b1100100000 aaaaa

#45100000000000
b1110000100 aaaaa

#45190000000000
b100111 aaaae

#45200000000000
b1111101000 aaaaa

#46700000000000
b110001 aaaae

#48210000000000
b110011 aaaae

#49690000000000
b110100 aaaae

#49740000000000
b0 aaaaa

#50800000000000
b1100100 aaaaa

#50900000000000
b11001000 aaaaa

#51000000000000
b100101100 aaaaa

#51100000000000
b110010000 aaaaa

#51200000000000
b111110100 aaaaa

#51300000000000
b1001011000 aaaaa

#51400000000000
b1010111100 aaaaa

#51500000000000
b1100100000 aaaaa

#51600000000000
b1110000100 aaaaa

#51700000000000
b1111101000 aaaaa

#51800000000000
b10001001100 aaaaa

#51900000000000
b10010110000 aaaaa

#52000000000000
b10100010100 aaaaa

#52100000000000
b10101111000 aaaaa

#52200000000000
b10111011100 aaaaa

#52240000000000
b110101 aaaae

#52260000000000
b0 aaaaa

