sim_trace.vcd
$date
     Oct 30, 2021       22:17:51
$end

$version
 SystemC 2.3.3-Accellera --- Aug 24 2021 23:20:20
$end

$timescale
     1 ps
$end

$scope module SystemC $end
$var wire    1  aaaaa  clock       $end
$var wire    1  aaaab  tx_ack_from_server1       $end
$var wire    1  aaaac  tx_flag_to_server1       $end
$var wire   16  aaaad  tx_data_to_server1 [15:0]  $end
$var wire    1  aaaae  rx_ack_to_server1       $end
$var wire    1  aaaaf  rx_flag_from_server1       $end
$var wire   16  aaaag  rx_data_from_server1 [15:0]  $end
$var wire    1  aaaah  tx_ack_from_processing1       $end
$var wire    1  aaaai  tx_flag_to_processing1       $end
$var wire   16  aaaaj  tx_data_to_processing1 [15:0]  $end
$var wire    1  aaaak  rx_ack_to_processing1       $end
$var wire    1  aaaal  rx_flag_from_processing1       $end
$var wire   16  aaaam  rx_data_from_srocessing1 [15:0]  $end
$var wire    1  aaaan  tx_ack_from_server2       $end
$var wire    1  aaaao  tx_flag_to_server2       $end
$var wire   16  aaaap  tx_data_to_server2 [15:0]  $end
$var wire    1  aaaaq  rx_ack_to_server2       $end
$var wire    1  aaaar  rx_flag_from_server2       $end
$var wire   16  aaaas  rx_data_from_server2 [15:0]  $end
$var wire    1  aaaat  tx_ack_from_processing2       $end
$var wire    1  aaaau  tx_flag_to_processing2       $end
$var wire   16  aaaav  tx_data_to_processing2 [15:0]  $end
$var wire    1  aaaaw  rx_ack_to_processing2       $end
$var wire    1  aaaax  rx_flag_from_processing2       $end
$var wire   16  aaaay  rx_data_from_srocessing2 [15:0]  $end
$var wire    1  aaaaz  tx_ack_from_server3       $end
$var wire    1  aaaba  tx_flag_to_server3       $end
$var wire   16  aaabb  tx_data_to_server3 [15:0]  $end
$var wire    1  aaabc  rx_ack_to_server3       $end
$var wire    1  aaabd  rx_flag_from_server3       $end
$var wire   16  aaabe  rx_data_from_server3 [15:0]  $end
$var wire    1  aaabf  tx_ack_from_processing3       $end
$var wire    1  aaabg  tx_flag_to_processing3       $end
$var wire   16  aaabh  tx_data_to_processing3 [15:0]  $end
$var wire    1  aaabi  rx_ack_to_processing3       $end
$var wire    1  aaabj  rx_flag_from_processing3       $end
$var wire   16  aaabk  rx_data_from_srocessing3 [15:0]  $end
$var wire    1  aaabl  tx_ack_from_server4       $end
$var wire    1  aaabm  tx_flag_to_server4       $end
$var wire   16  aaabn  tx_data_to_server4 [15:0]  $end
$var wire    1  aaabo  rx_ack_to_server4       $end
$var wire    1  aaabp  rx_flag_from_server4       $end
$var wire   16  aaabq  rx_data_from_server4 [15:0]  $end
$var wire    1  aaabr  tx_ack_from_processing4       $end
$var wire    1  aaabs  tx_flag_to_processing4       $end
$var wire   16  aaabt  tx_data_to_processing4 [15:0]  $end
$var wire    1  aaabu  rx_ack_to_processing4       $end
$var wire    1  aaabv  rx_flag_from_processing4       $end
$var wire   16  aaabw  rx_data_from_srocessing4 [15:0]  $end
$upscope $end
$enddefinitions  $end

$comment
All initial values are dumped below at time 0 sec = 0 timescale units.
$end

$dumpvars
1aaaaa
0aaaab
0aaaac
b0 aaaad
0aaaae
0aaaaf
b0 aaaag
0aaaah
0aaaai
b0 aaaaj
0aaaak
0aaaal
b0 aaaam
0aaaan
0aaaao
b0 aaaap
0aaaaq
0aaaar
b0 aaaas
0aaaat
0aaaau
b0 aaaav
0aaaaw
0aaaax
b0 aaaay
0aaaaz
0aaaba
b0 aaabb
0aaabc
0aaabd
b0 aaabe
0aaabf
0aaabg
b0 aaabh
0aaabi
0aaabj
b0 aaabk
0aaabl
0aaabm
b0 aaabn
0aaabo
0aaabp
b0 aaabq
0aaabr
0aaabs
b0 aaabt
0aaabu
0aaabv
b0 aaabw
$end

#5000000000
0aaaaa

#10000000000
1aaaaa

#15000000000
0aaaaa

#20000000000
1aaaaa

#25000000000
0aaaaa

#30000000000
1aaaaa

#35000000000
0aaaaa

#40000000000
1aaaaa

#45000000000
0aaaaa

#50000000000
1aaaaa

#55000000000
0aaaaa

#60000000000
1aaaaa

#65000000000
0aaaaa

#70000000000
1aaaaa

#75000000000
0aaaaa

#80000000000
1aaaaa

#85000000000
0aaaaa

#90000000000
1aaaaa

#95000000000
0aaaaa

#100000000000
1aaaaa

#105000000000
0aaaaa

#110000000000
1aaaaa

#115000000000
0aaaaa

#120000000000
1aaaaa

#125000000000
0aaaaa

#130000000000
1aaaaa

#135000000000
0aaaaa

#140000000000
1aaaaa

#145000000000
0aaaaa

#150000000000
1aaaaa

#155000000000
0aaaaa

#160000000000
1aaaaa

#165000000000
0aaaaa

#170000000000
1aaaaa

#175000000000
0aaaaa

#180000000000
1aaaaa

#185000000000
0aaaaa

#190000000000
1aaaaa

#195000000000
0aaaaa

#200000000000
1aaaaa

#205000000000
0aaaaa

#210000000000
1aaaaa

#215000000000
0aaaaa

#220000000000
1aaaaa

#225000000000
0aaaaa

#230000000000
1aaaaa

#235000000000
0aaaaa

#240000000000
1aaaaa

#245000000000
0aaaaa

#250000000000
1aaaaa

#255000000000
0aaaaa

#260000000000
1aaaaa

#265000000000
0aaaaa

#270000000000
1aaaaa

#275000000000
0aaaaa

#280000000000
1aaaaa

#285000000000
0aaaaa

#290000000000
1aaaaa

#295000000000
0aaaaa

#300000000000
1aaaaa

#305000000000
0aaaaa

#310000000000
1aaaaa

#315000000000
0aaaaa

#320000000000
1aaaaa

#325000000000
0aaaaa

#330000000000
1aaaaa

#335000000000
0aaaaa

#340000000000
1aaaaa

#345000000000
0aaaaa

#350000000000
1aaaaa

#355000000000
0aaaaa

#360000000000
1aaaaa

#365000000000
0aaaaa

#370000000000
1aaaaa

#375000000000
0aaaaa

#380000000000
1aaaaa

#385000000000
0aaaaa

#390000000000
1aaaaa

#395000000000
0aaaaa

#400000000000
1aaaaa

#405000000000
0aaaaa

#410000000000
1aaaaa

#415000000000
0aaaaa

#420000000000
1aaaaa

#425000000000
0aaaaa

#430000000000
1aaaaa

#435000000000
0aaaaa

#440000000000
1aaaaa

#445000000000
0aaaaa

#450000000000
1aaaaa

#455000000000
0aaaaa

#460000000000
1aaaaa

#465000000000
0aaaaa

#470000000000
1aaaaa

#475000000000
0aaaaa

#480000000000
1aaaaa

#485000000000
0aaaaa

#490000000000
1aaaaa

#495000000000
0aaaaa

#500000000000
1aaaaa

#505000000000
0aaaaa

#510000000000
1aaaaa

#515000000000
0aaaaa

#520000000000
1aaaaa

#525000000000
0aaaaa

#530000000000
1aaaaa

#535000000000
0aaaaa

#540000000000
1aaaaa

#545000000000
0aaaaa

#550000000000
1aaaaa

#555000000000
0aaaaa

#560000000000
1aaaaa

#565000000000
0aaaaa

#570000000000
1aaaaa

#575000000000
0aaaaa

#580000000000
1aaaaa

#585000000000
0aaaaa

#590000000000
1aaaaa

#595000000000
0aaaaa

#600000000000
1aaaaa

#605000000000
0aaaaa

#610000000000
1aaaaa

#615000000000
0aaaaa

#620000000000
1aaaaa

#625000000000
0aaaaa

#630000000000
1aaaaa

#635000000000
0aaaaa

#640000000000
1aaaaa

#645000000000
0aaaaa

#650000000000
1aaaaa

#655000000000
0aaaaa

#660000000000
1aaaaa

#665000000000
0aaaaa

#670000000000
1aaaaa

#675000000000
0aaaaa

#680000000000
1aaaaa

#685000000000
0aaaaa

#690000000000
1aaaaa

#695000000000
0aaaaa

#700000000000
1aaaaa

#705000000000
0aaaaa

#710000000000
1aaaaa

#715000000000
0aaaaa

#720000000000
1aaaaa

#725000000000
0aaaaa

#730000000000
1aaaaa

#735000000000
0aaaaa

#740000000000
1aaaaa

#745000000000
0aaaaa

#750000000000
1aaaaa

#755000000000
0aaaaa

#760000000000
1aaaaa

#765000000000
0aaaaa

#770000000000
1aaaaa

#775000000000
0aaaaa

#780000000000
1aaaaa

#785000000000
0aaaaa

#790000000000
1aaaaa

#795000000000
0aaaaa

#800000000000
1aaaaa

#805000000000
0aaaaa

#810000000000
1aaaaa

#815000000000
0aaaaa

#820000000000
1aaaaa

#825000000000
0aaaaa

#830000000000
1aaaaa

#835000000000
0aaaaa

#840000000000
1aaaaa

#845000000000
0aaaaa

#850000000000
1aaaaa

#855000000000
0aaaaa

#860000000000
1aaaaa

#865000000000
0aaaaa

#870000000000
1aaaaa

#875000000000
0aaaaa

#880000000000
1aaaaa

#885000000000
0aaaaa

#890000000000
1aaaaa

#895000000000
0aaaaa

#900000000000
1aaaaa

#905000000000
0aaaaa

#910000000000
1aaaaa

#915000000000
0aaaaa

#920000000000
1aaaaa

#925000000000
0aaaaa

#930000000000
1aaaaa

#935000000000
0aaaaa

#940000000000
1aaaaa

#945000000000
0aaaaa

#950000000000
1aaaaa

#955000000000
0aaaaa

#960000000000
1aaaaa

#965000000000
0aaaaa

#970000000000
1aaaaa

#975000000000
0aaaaa

#980000000000
1aaaaa

#985000000000
0aaaaa

#990000000000
1aaaaa

#995000000000
0aaaaa

#1000000000000
1aaaaa
b1011 aaaag
b1011 aaaaj

#1005000000000
0aaaaa

#1010000000000
1aaaaa
b110 aaaag
b110 aaaaj

#1015000000000
0aaaaa

#1020000000000
1aaaaa
b1010 aaaag
b1010 aaaaj

#1025000000000
0aaaaa

#1030000000000
1aaaaa
b1001 aaaag
b1001 aaaaj

#1035000000000
0aaaaa

#1040000000000
1aaaaa

#1045000000000
0aaaaa

#1050000000000
1aaaaa

#1055000000000
0aaaaa

#1060000000000
1aaaaa

#1065000000000
0aaaaa

#1070000000000
1aaaaa

#1075000000000
0aaaaa

#1080000000000
1aaaaa

#1085000000000
0aaaaa

#1090000000000
1aaaaa

#1095000000000
0aaaaa

#1100000000000
1aaaaa

#1105000000000
0aaaaa

#1110000000000
1aaaaa

#1115000000000
0aaaaa

#1120000000000
1aaaaa

#1125000000000
0aaaaa

#1130000000000
1aaaaa

#1135000000000
0aaaaa

#1140000000000
1aaaaa

#1145000000000
0aaaaa

#1150000000000
1aaaaa

#1155000000000
0aaaaa

#1160000000000
1aaaaa

#1165000000000
0aaaaa

#1170000000000
1aaaaa

#1175000000000
0aaaaa

#1180000000000
1aaaaa

#1185000000000
0aaaaa

#1190000000000
1aaaaa

#1195000000000
0aaaaa

#1200000000000
1aaaaa

#1205000000000
0aaaaa

#1210000000000
1aaaaa

#1215000000000
0aaaaa

#1220000000000
1aaaaa

#1225000000000
0aaaaa

#1230000000000
1aaaaa

#1235000000000
0aaaaa

#1240000000000
1aaaaa

#1245000000000
0aaaaa

#1250000000000
1aaaaa

#1255000000000
0aaaaa

#1260000000000
1aaaaa

#1265000000000
0aaaaa

#1270000000000
1aaaaa

#1275000000000
0aaaaa

#1280000000000
1aaaaa

#1285000000000
0aaaaa

#1290000000000
1aaaaa

#1295000000000
0aaaaa

#1300000000000
1aaaaa

#1305000000000
0aaaaa

#1310000000000
1aaaaa

#1315000000000
0aaaaa

#1320000000000
1aaaaa

#1325000000000
0aaaaa

#1330000000000
1aaaaa

#1335000000000
0aaaaa

#1340000000000
1aaaaa

#1345000000000
0aaaaa

#1350000000000
1aaaaa

#1355000000000
0aaaaa

#1360000000000
1aaaaa

#1365000000000
0aaaaa

#1370000000000
1aaaaa

#1375000000000
0aaaaa

#1380000000000
1aaaaa

#1385000000000
0aaaaa

#1390000000000
1aaaaa

#1395000000000
0aaaaa

#1400000000000
1aaaaa

#1405000000000
0aaaaa

#1410000000000
1aaaaa

#1415000000000
0aaaaa

#1420000000000
1aaaaa

#1425000000000
0aaaaa

#1430000000000
1aaaaa

#1435000000000
0aaaaa

#1440000000000
1aaaaa

#1445000000000
0aaaaa

#1450000000000
1aaaaa

#1455000000000
0aaaaa

#1460000000000
1aaaaa

#1465000000000
0aaaaa

#1470000000000
1aaaaa

#1475000000000
0aaaaa

#1480000000000
1aaaaa

#1485000000000
0aaaaa

#1490000000000
1aaaaa

#1495000000000
0aaaaa

#1500000000000
1aaaaa

#1505000000000
0aaaaa

#1510000000000
1aaaaa

#1515000000000
0aaaaa

#1520000000000
1aaaaa

#1525000000000
0aaaaa

#1530000000000
1aaaaa

#1535000000000
0aaaaa

#1540000000000
1aaaaa

#1545000000000
0aaaaa

#1550000000000
1aaaaa

#1555000000000
0aaaaa

#1560000000000
1aaaaa

#1565000000000
0aaaaa

#1570000000000
1aaaaa

#1575000000000
0aaaaa

#1580000000000
1aaaaa

#1585000000000
0aaaaa

#1590000000000
1aaaaa

#1595000000000
0aaaaa

#1600000000000
1aaaaa

#1605000000000
0aaaaa

#1610000000000
1aaaaa

#1615000000000
0aaaaa

#1620000000000
1aaaaa

#1625000000000
0aaaaa

#1630000000000
1aaaaa

#1635000000000
0aaaaa

#1640000000000
1aaaaa

#1645000000000
0aaaaa

#1650000000000
1aaaaa

#1655000000000
0aaaaa

#1660000000000
1aaaaa

#1665000000000
0aaaaa

#1670000000000
1aaaaa

#1675000000000
0aaaaa

#1680000000000
1aaaaa

#1685000000000
0aaaaa

#1690000000000
1aaaaa

#1695000000000
0aaaaa

#1700000000000
1aaaaa

#1705000000000
0aaaaa

#1710000000000
1aaaaa

#1715000000000
0aaaaa

#1720000000000
1aaaaa

#1725000000000
0aaaaa

#1730000000000
1aaaaa

#1735000000000
0aaaaa

#1740000000000
1aaaaa

#1745000000000
0aaaaa

#1750000000000
1aaaaa

#1755000000000
0aaaaa

#1760000000000
1aaaaa

#1765000000000
0aaaaa

#1770000000000
1aaaaa

#1775000000000
0aaaaa

#1780000000000
1aaaaa

#1785000000000
0aaaaa

#1790000000000
1aaaaa

#1795000000000
0aaaaa

#1800000000000
1aaaaa

#1805000000000
0aaaaa

#1810000000000
1aaaaa

#1815000000000
0aaaaa

#1820000000000
1aaaaa

#1825000000000
0aaaaa

#1830000000000
1aaaaa

#1835000000000
0aaaaa

#1840000000000
1aaaaa

#1845000000000
0aaaaa

#1850000000000
1aaaaa

#1855000000000
0aaaaa

#1860000000000
1aaaaa

#1865000000000
0aaaaa

#1870000000000
1aaaaa

#1875000000000
0aaaaa

#1880000000000
1aaaaa

#1885000000000
0aaaaa

#1890000000000
1aaaaa

#1895000000000
0aaaaa

#1900000000000
1aaaaa

#1905000000000
0aaaaa

#1910000000000
1aaaaa

#1915000000000
0aaaaa

#1920000000000
1aaaaa

#1925000000000
0aaaaa

#1930000000000
1aaaaa

#1935000000000
0aaaaa

#1940000000000
1aaaaa

#1945000000000
0aaaaa

#1950000000000
1aaaaa

#1955000000000
0aaaaa

#1960000000000
1aaaaa

#1965000000000
0aaaaa

#1970000000000
1aaaaa

#1975000000000
0aaaaa

#1980000000000
1aaaaa

#1985000000000
0aaaaa

#1990000000000
1aaaaa

#1995000000000
0aaaaa

#2000000000000
1aaaaa
b1011 aaabq
b1011 aaabt

#2005000000000
0aaaaa

#2010000000000
1aaaaa
b110 aaabq
b110 aaabt

#2015000000000
0aaaaa

#2020000000000
1aaaaa

#2025000000000
0aaaaa

#2030000000000
1aaaaa

#2035000000000
0aaaaa

#2040000000000
1aaaaa

#2045000000000
0aaaaa

#2050000000000
1aaaaa

#2055000000000
0aaaaa

#2060000000000
1aaaaa

#2065000000000
0aaaaa

#2070000000000
1aaaaa

#2075000000000
0aaaaa

#2080000000000
1aaaaa

#2085000000000
0aaaaa

#2090000000000
1aaaaa

#2095000000000
0aaaaa

#2100000000000
1aaaaa

#2105000000000
0aaaaa

#2110000000000
1aaaaa

#2115000000000
0aaaaa

#2120000000000
1aaaaa

#2125000000000
0aaaaa

#2130000000000
1aaaaa

#2135000000000
0aaaaa

#2140000000000
1aaaaa

#2145000000000
0aaaaa

#2150000000000
1aaaaa

#2155000000000
0aaaaa

#2160000000000
1aaaaa

#2165000000000
0aaaaa

#2170000000000
1aaaaa

#2175000000000
0aaaaa

#2180000000000
1aaaaa

#2185000000000
0aaaaa

#2190000000000
1aaaaa

#2195000000000
0aaaaa

#2200000000000
1aaaaa

#2205000000000
0aaaaa

#2210000000000
1aaaaa

#2215000000000
0aaaaa

#2220000000000
1aaaaa

#2225000000000
0aaaaa

#2230000000000
1aaaaa

#2235000000000
0aaaaa

#2240000000000
1aaaaa

#2245000000000
0aaaaa

#2250000000000
1aaaaa

#2255000000000
0aaaaa

#2260000000000
1aaaaa

#2265000000000
0aaaaa

#2270000000000
1aaaaa

#2275000000000
0aaaaa

#2280000000000
1aaaaa

#2285000000000
0aaaaa

#2290000000000
1aaaaa

#2295000000000
0aaaaa

#2300000000000
1aaaaa

#2305000000000
0aaaaa

#2310000000000
1aaaaa

#2315000000000
0aaaaa

#2320000000000
1aaaaa

#2325000000000
0aaaaa

#2330000000000
1aaaaa

#2335000000000
0aaaaa

#2340000000000
1aaaaa

#2345000000000
0aaaaa

#2350000000000
1aaaaa

#2355000000000
0aaaaa

#2360000000000
1aaaaa

#2365000000000
0aaaaa

#2370000000000
1aaaaa

#2375000000000
0aaaaa

#2380000000000
1aaaaa

#2385000000000
0aaaaa

#2390000000000
1aaaaa

#2395000000000
0aaaaa

#2400000000000
1aaaaa

#2405000000000
0aaaaa

#2410000000000
1aaaaa

#2415000000000
0aaaaa

#2420000000000
1aaaaa

#2425000000000
0aaaaa

#2430000000000
1aaaaa

#2435000000000
0aaaaa

#2440000000000
1aaaaa

#2445000000000
0aaaaa

#2450000000000
1aaaaa

#2455000000000
0aaaaa

#2460000000000
1aaaaa

#2465000000000
0aaaaa

#2470000000000
1aaaaa

#2475000000000
0aaaaa

#2480000000000
1aaaaa

#2485000000000
0aaaaa

#2490000000000
1aaaaa

#2495000000000
0aaaaa

#2500000000000
1aaaaa

#2505000000000
0aaaaa

#2510000000000
1aaaaa

#2515000000000
0aaaaa

#2520000000000
1aaaaa

#2525000000000
0aaaaa

#2530000000000
1aaaaa

#2535000000000
0aaaaa

#2540000000000
1aaaaa

#2545000000000
0aaaaa

#2550000000000
1aaaaa

#2555000000000
0aaaaa

#2560000000000
1aaaaa

#2565000000000
0aaaaa

#2570000000000
1aaaaa

#2575000000000
0aaaaa

#2580000000000
1aaaaa

#2585000000000
0aaaaa

#2590000000000
1aaaaa

#2595000000000
0aaaaa

#2600000000000
1aaaaa

#2605000000000
0aaaaa

#2610000000000
1aaaaa

#2615000000000
0aaaaa

#2620000000000
1aaaaa

#2625000000000
0aaaaa

#2630000000000
1aaaaa

#2635000000000
0aaaaa

#2640000000000
1aaaaa

#2645000000000
0aaaaa

#2650000000000
1aaaaa

#2655000000000
0aaaaa

#2660000000000
1aaaaa

#2665000000000
0aaaaa

#2670000000000
1aaaaa

#2675000000000
0aaaaa

#2680000000000
1aaaaa

#2685000000000
0aaaaa

#2690000000000
1aaaaa

#2695000000000
0aaaaa

#2700000000000
1aaaaa

#2705000000000
0aaaaa

#2710000000000
1aaaaa

#2715000000000
0aaaaa

#2720000000000
1aaaaa

#2725000000000
0aaaaa

#2730000000000
1aaaaa

#2735000000000
0aaaaa

#2740000000000
1aaaaa
b1 aaabn
b1 aaabw

#2745000000000
0aaaaa

#2750000000000
1aaaaa
b1001 aaabq
b1001 aaabt

#2755000000000
0aaaaa

#2760000000000
1aaaaa

#2765000000000
0aaaaa

#2770000000000
1aaaaa
b1010 aaabq
b1010 aaabt

